Programming assigment 4
…
``` r
print(data_1)
```

```
## # A tibble: 200 × 3
##    phoneme   cog skewness
##    <chr>   <dbl>    <dbl>
##  1 s       3285.     2.72
##  2 s       3285.     2.31
##  3 sh      2556.     2.72
##  4 sh      2556.     2.31
##  5 s       3511.     3.09
##  6 s       3511.     2.47
##  7 sh      2781.     3.09
##  8 sh      2781.     2.47
##  9 s       4029.     3.33
## 10 s       4029.     2.48
## # ℹ 190 more rows
```
…
